…
## Data wrangling example

### Re-shaping 

The IMD 2015 data are in a *long* format, which means that every area is represented by more than one row: the column `Value` presents the value; the column `IndicesOfDeprivation` indicates which index the value refers to; the column `Measurement` indicates whether the value is a score, rank, or decile. The code below illustrates the data format for the LSOA including the University of Leicester (feature code `E01013649`).


```r
leicester_IMD2015 %>%
  filter(FeatureCode == "E01013649") %>%
  select(FeatureCode, IndicesOfDeprivation, Measurement, Value)
```

```
## # A tibble: 30 x 4
##    FeatureCode IndicesOfDeprivation                           Measurement  Value
##    <chr>       <chr>                                          <chr>        <dbl>
##  1 E01013649   Income Deprivation Domain                      Score        0.07 
##  2 E01013649   Employment Deprivation Domain                  Score        0.075
##  3 E01013649   Income Deprivation Affecting Children Index (… Score        0.087
##  4 E01013649   Income Deprivation Affecting Older People Ind… Score        0.153
##  5 E01013649   Health Deprivation and Disability Domain       Score        0.272
##  6 E01013649   Index of Multiple Deprivation (IMD)            Score       19.7  
##  7 E01013649   Education, Skills and Training Domain          Score        2.19 
##  8 E01013649   Barriers to Housing and Services Domain        Score       14.3  
##  9 E01013649   Living Environment Deprivation Domain          Score       57.2  
## 10 E01013649   Crime Domain                                   Score        1.16 
## # … with 20 more rows
```
…
```r
leicester_2011OAC_IMD2015 <- leicester_2011OAC %>%
  left_join(leicester_IMD2015_decile_wide, by = c("LSOA11CD" = "FeatureCode"))
```

Once the result is stored into the variable `leicester_2011OAC_IMD2015`, further analysis can be carried out. For instance, `count` can be used to count how many OAs fall into each 2011 OAC supergroup and decile of the Index of Multiple Deprivations. 


```r
leicester_2011OAC_IMD2015 %>%
  count(supgrpname, IndexofMultipleDeprivationIMD)
```

```
## # A tibble: 46 x 3
##    supgrpname                IndexofMultipleDeprivationIMD     n
##    <chr>                                             <dbl> <int>
##  1 Constrained City Dwellers                             1    30
##  2 Constrained City Dwellers                             2     3
##  3 Constrained City Dwellers                             3     2
##  4 Constrained City Dwellers                             6     1
##  5 Cosmopolitans                                         2    25
##  6 Cosmopolitans                                         3    15
##  7 Cosmopolitans                                         4    15
##  8 Cosmopolitans                                         5     8
##  9 Cosmopolitans                                         6    10
## 10 Cosmopolitans                                         8    10
## # … with 36 more rows
```
…
