…
```r
install.packages("nycflights13")
```
-->

```r
library(nycflights13)

nycflights13::flights
```

```
## # A tibble: 336,776 x 19
##    year month   day dep_time sched_dep_time dep_delay arr_time
##   <int> <int> <int>    <int>          <int>     <dbl>    <int>
## 1  2013     1     1      517            515         2      830
## 2  2013     1     1      533            529         4      850
## 3  2013     1     1      542            540         2      923
## # … with 336,773 more rows, and 12 more variables:
## #   sched_arr_time <int>, arr_delay <dbl>, carrier <chr>,
## #   flight <int>, tailnum <chr>, origin <chr>, dest <chr>,
## #   air_time <dbl>, distance <dbl>, hour <dbl>, minute <dbl>,
## #   time_hour <dttm>
```
…
```r
nycflights13::flights[, c(13, 14)]
```

- specifying the column name


```r
nycflights13::flights[, c("origin", "dest")]
```

```
## # A tibble: 336,776 x 2
##   origin dest 
##   <chr>  <chr>
## 1 EWR    IAH  
## 2 LGA    IAH  
## 3 JFK    MIA  
## # … with 336,773 more rows
```

## dplyr::select

`select` can be used to specify which columns to retain


```r
nycflights13::flights %>%
  dplyr::select( 
    origin, dest, dep_delay, arr_delay, year:day
  )
```

```
## # A tibble: 336,776 x 7
##   origin dest  dep_delay arr_delay  year month   day
##   <chr>  <chr>     <dbl>     <dbl> <int> <int> <int>
## 1 EWR    IAH           2        11  2013     1     1
## 2 LGA    IAH           4        20  2013     1     1
## 3 JFK    MIA           2        33  2013     1     1
## 4 JFK    BQN          -1       -18  2013     1     1
## 5 LGA    ATL          -6       -25  2013     1     1
## # … with 336,771 more rows
```


## dplyr::select

... or whichones to drop, using - in front of the column name


```r
nycflights13::flights %>%
  dplyr::select(origin, dest, dep_delay, arr_delay, year:day) %>% 
  dplyr::select(-arr_delay)
```

```
## # A tibble: 336,776 x 6
##   origin dest  dep_delay  year month   day
##   <chr>  <chr>     <dbl> <int> <int> <int>
## 1 EWR    IAH           2  2013     1     1
## 2 LGA    IAH           4  2013     1     1
## 3 JFK    MIA           2  2013     1     1
## # … with 336,773 more rows
```
…
```r
nycflights13::flights$month == 11
```

```
##     [1] FALSE FALSE FALSE FALSE FALSE FALSE FALSE...
```


```r
nycflights13::flights[nycflights13::flights$month == 11, ]
```

```
## # A tibble: 27,268 x 19
##    year month   day dep_time sched_dep_time
##   <int> <int> <int>    <int>          <int>
## 1  2013    11     1        5           2359
## # … with 27,267 more rows, and 14 more variables:
## #   dep_delay <dbl>, arr_time <int>,
## #   sched_arr_time <int>, arr_delay <dbl>,
## #   carrier <chr>, flight <int>, tailnum <chr>,
## #   origin <chr>, dest <chr>, air_time <dbl>,
## #   distance <dbl>, hour <dbl>, minute <dbl>,
## #   time_hour <dttm>
```



## dplyr::filter


```r
nycflights13::flights %>%
  # Flights in November
  dplyr::filter(month == 11)
```

```
## # A tibble: 27,268 x 19
##    year month   day dep_time sched_dep_time
##   <int> <int> <int>    <int>          <int>
## 1  2013    11     1        5           2359
## 2  2013    11     1       35           2250
## 3  2013    11     1      455            500
## # … with 27,265 more rows, and 14 more variables:
## #   dep_delay <dbl>, arr_time <int>,
## #   sched_arr_time <int>, arr_delay <dbl>,
## #   carrier <chr>, flight <int>, tailnum <chr>,
## #   origin <chr>, dest <chr>, air_time <dbl>,
## #   distance <dbl>, hour <dbl>, minute <dbl>,
## #   time_hour <dttm>
```
## Select and filter


```r
nycflights13::flights %>%
  # Select the columns you need
  dplyr::select(origin, dest, dep_delay, arr_delay, year:day) %>% 
  # Drop arr_delay... because you don't need it after all
  dplyr::select(-arr_delay) %>%
  # Filter in only November flights
  dplyr::filter(month == 11)
```

```
## # A tibble: 27,268 x 6
##   origin dest  dep_delay  year month   day
##   <chr>  <chr>     <dbl> <int> <int> <int>
## 1 JFK    PSE           6  2013    11     1
## 2 JFK    SYR         105  2013    11     1
## 3 EWR    CLT          -5  2013    11     1
## # … with 27,265 more rows
```
…
