…
## Read options


```r
readr::read_csv("2011_OAC_Raw_uVariables_Leicester.csv")
```

```
## # A tibble: 969 x 190
##   OA11CD LSOA11CD LSO11ANM MSOA11CD MSOA11NM LAD11CD LAD11NM supgrpcode
##   <chr>  <chr>    <chr>    <chr>    <chr>    <chr>   <chr>        <dbl>
## 1 E0006… E010137… Leicest… E020028… Leicest… E06000… Leices…          6
## 2 E0006… E010137… Leicest… E020028… Leicest… E06000… Leices…          2
## 3 E0016… E010137… Leicest… E020028… Leicest… E06000… Leices…          4
## # … with 966 more rows, and 182 more variables: supgrpname <chr>,
## #   grpcode <chr>, grpname <chr>, subgrpcode <chr>, subgrpname <chr>,
## #   Total_Population <dbl>, Total_Households <dbl>, Total_Dwellings <dbl>,
## #   Total_Household_Spaces <dbl>, Total_Population_16_and_over <dbl>,
## #   Total_Population_16_to_74 <dbl>, Total_Pop_No_NI_Students_16_to_74 <dbl>,
## #   Total_Employment_16_to_74 <dbl>,
## #   Total_Pop_in_Housesholds_16_and_over <dbl>,
## #   Total_Population_3_and_over <dbl>, u001 <dbl>, u002 <dbl>, u003 <dbl>,
## #   u004 <dbl>, u005 <dbl>, u006 <dbl>, u007 <dbl>, u008 <dbl>, u009 <dbl>,
…
```r
readr::read_csv(
  "2011_OAC_Raw_uVariables_Leicester.csv"
  )
```

```
## # A tibble: 969 x 190
##   OA11CD LSOA11CD LSO11ANM MSOA11CD MSOA11NM LAD11CD LAD11NM supgrpcode
##   <chr>  <chr>    <chr>    <chr>    <chr>    <chr>   <chr>        <dbl>
## 1 E0006… E010137… Leicest… E020028… Leicest… E06000… Leices…          6
## 2 E0006… E010137… Leicest… E020028… Leicest… E06000… Leices…          2
## 3 E0016… E010137… Leicest… E020028… Leicest… E06000… Leices…          4
## # … with 966 more rows, and 182 more variables: supgrpname <chr>,
## #   grpcode <chr>, grpname <chr>, subgrpcode <chr>, subgrpname <chr>,
## #   Total_Population <dbl>, Total_Households <dbl>, Total_Dwellings <dbl>,
## #   Total_Household_Spaces <dbl>, Total_Population_16_and_over <dbl>,
## #   Total_Population_16_to_74 <dbl>, Total_Pop_No_NI_Students_16_to_74 <dbl>,
## #   Total_Employment_16_to_74 <dbl>,
## #   Total_Pop_in_Housesholds_16_and_over <dbl>,
## #   Total_Population_3_and_over <dbl>, u001 <dbl>, u002 <dbl>, u003 <dbl>,
## #   u004 <dbl>, u005 <dbl>, u006 <dbl>, u007 <dbl>, u008 <dbl>, u009 <dbl>,
…
