17 Descriptive statistics | Lecture materials | granolarr
…
17.12 dplyr::across

Old columns:

## # A tibble: 344 x 3
##   bill_length_mm bill_depth_mm flipper_length_mm
##            <dbl>         <dbl>             <int>
## 1           39.1          18.7               181
## 2           39.5          17.4               186
## # … with 342 more rows

New columns:

## # A tibble: 344 x 3
##   bill_length_in bill_depth_in flipper_length_in
##            <dbl>         <dbl>             <dbl>
## 1           1.54         0.736              7.13
## 2           1.56         0.685              7.32
## # … with 342 more rows
…
